…
### Printing 

One of the most obvious differences between tibbles and data frames is how they print. I assume that you're already familiar with how data frames are printed, so here I'll highlight some of the biggest differences using an example dataset included in the dplyr package:


```r
dplyr::starwars
#> # A tibble: 87 x 14
#>    name  height  mass hair_color skin_color eye_color birth_year
#>    <chr>  <int> <dbl> <chr>      <chr>      <chr>          <dbl>
#>  1 Luke…    172    77 blond      fair       blue            19  
#>  2 C-3PO    167    75 <NA>       gold       yellow         112  
#>  3 R2-D2     96    32 <NA>       white, bl… red             33  
#>  4 Dart…    202   136 none       white      yellow          41.9
#>  5 Leia…    150    49 brown      light      brown           19  
#>  6 Owen…    178   120 brown, gr… light      blue            52  
#>  7 Beru…    165    75 brown      light      blue            47  
#>  8 R5-D4     97    32 <NA>       white, red red             NA  
#>  9 Bigg…    183    84 black      light      brown           24  
#> 10 Obi-…    182    77 auburn, w… fair       blue-gray       57  
#> # … with 77 more rows, and 7 more variables: sex <chr>,
#> #   gender <chr>, homeworld <chr>, species <chr>, films <list>,
#> #   vehicles <list>, starships <list>
```
…
